{
  "groupId":"org.openproject.client",
  "artifactId":"openproject-api-client",
  "artifactVersion":"0.2.1",
  "hideGenerationTimestamp":true,
  "dateLibrary":"java8",
  "developerOrganization":"kaneo GmbH",
  "developerOrganizationUrl":"https://www.kaneo-gmbh.de/",
  "licenseName":"Apache License 2.0",
  "licenseUrl":"https://www.apache.org/licenses/LICENSE-2.0",
  "apiPackage":"org.openproject.client.api",
  "modelPackage":"org.openproject.client.model",
  "invokerPackage":"org.openproject.client"
}
